{
  "title": "Analytics Overview",
  "widgets": [
    {
      "visualization": "cube_analytics_line_chart",
      "title": "Audience",
      "gridAttributes": {
        "size": {
          "width": 6,
          "height": 5
        }
      }
    },
    {
      "visualization": "cube_analytics_line_chart",
      "title": "Sources",
      "gridAttributes": {
        "size": {
          "yPos": 4,
          "width": 6,
          "height": 5
        }
      }
    }
  ]
}